Machine learning with tidymodels - 6 - Tuning Hyperparameters
…
collect_metrics(spline_res, summarize = FALSE)
#> # A tibble: 90 × 6
#>    id    deg_free .metric .estimator .estimate .config             
#>    <chr>    <int> <chr>   <chr>          <dbl> <chr>               
#>  1 Fold1       13 rmse    standard       2.11  Preprocessor1_Model1
#>  2 Fold1       13 rsq     standard       0.513 Preprocessor1_Model1
#>  3 Fold2       13 rmse    standard       2.24  Preprocessor1_Model1
#>  4 Fold2       13 rsq     standard       0.537 Preprocessor1_Model1
#>  5 Fold3       13 rmse    standard       2.31  Preprocessor1_Model1
#>  6 Fold3       13 rsq     standard       0.544 Preprocessor1_Model1
#>  7 Fold4       13 rmse    standard       2.11  Preprocessor1_Model1
#>  8 Fold4       13 rsq     standard       0.569 Preprocessor1_Model1
#>  9 Fold5       13 rmse    standard       2.15  Preprocessor1_Model1
#> 10 Fold5       13 rsq     standard       0.540 Preprocessor1_Model1
#> # … with 80 more rows
#> # ℹ Use `print(n = ...)` to see more rows
…
You can control the grid used to search the parameter space

Use the grid_*() functions, or create your own tibble

grid_regular(list(deg_free = spline_degree(), tree_depth()), levels = 5)
#> # A tibble: 25 × 2
#>    deg_free tree_depth
#>       <int>      <int>
#>  1        1          1
#>  2        3          1
#>  3        5          1
#>  4        7          1
#>  5       10          1
#>  6        1          4
#>  7        3          4
#>  8        5          4
#>  9        7          4
#> 10       10          4
#> # … with 15 more rows
#> # ℹ Use `print(n = ...)` to see more rows
…
